{
  "compilerOptions": {
    "target": "ES6",
    "module": "commonjs",
    "allowSyntheticDefaultImports": true,
    "baseUrl": "./",
    "paths": {
      "~/*": ["./src/*"]
    }
  },
  "exclude": ["build", "node-modules"]
}
